{
  "todos": [
    {
      "id": "t001",
      "label": "shopping"
    },
    {
      "id": "t002",
      "label": "grocery"
    },
    {
      "label": "planting",
      "id": "yvu1OMF"
    }
  ],
  "users": [
    {
      "username": "test@test",
      "password": "$2a$12$8JbVlxAdJ9zNfTBhjAj9q.BbY/pBsZKi1xV20I7TktHhx8A4E4l9u",
      "id": 1
    },
    {
      "username": "abc@test",
      "password": "$2a$12$OpWr2CTF9gj3VDSFpZ.Wxe07/uPCEzDPVhNQL0mieCVddr2Pgnax6",
      "id": 2
    }
  ],
  "posts": [
    {
      "id": "p002",
      "title": "React for Beginners",
      "author": "abc@test"
    }
  ]
}